top.vcd
$date
	Wed Dec 31 00:41:44 2025
$end
$version
	Icarus Verilog
$end
$timescale
	1ps
$end
$scope module top_tb $end
$var wire 9 ! N [8:0] $end
$var parameter 32 " n $end
$var reg 3 # R0 [2:0] $end
$var reg 4 $ R1 [3:0] $end
$var reg 3 % R_1 [2:0] $end
$var integer 32 & fail [31:0] $end
$var integer 32 ' i [31:0] $end
$var integer 32 ( pass [31:0] $end
$scope function mod $end
$var integer 32 ) N [31:0] $end
$var integer 32 * modulus [31:0] $end
$var integer 32 + temp [31:0] $end
$upscope $end
$scope module dut $end
$var wire 3 , N0 [2:0] $end
$var wire 3 - R0 [2:0] $end
$var wire 4 . R1 [3:0] $end
$var wire 3 / R_1 [2:0] $end
$var wire 1 0 shdir $end
$var wire 3 1 shamt [2:0] $end
$var wire 3 2 sel [2:0] $end
$var wire 1 3 is_zero_B $end
$var wire 1 4 is_neg_2_pow_n_A $end
$var wire 1 5 is_neg_2_B $end
$var wire 1 6 is_2_pow_n_A $end
$var wire 8 7 frommux_B [7:0] $end
$var wire 8 8 frommux_A [7:0] $end
$var wire 8 9 from_opB [7:0] $end
$var wire 8 : from_opA [7:0] $end
$var wire 4 ; aluOp [3:0] $end
$var wire 8 < N_2 [7:0] $end
$var wire 8 = N_1 [7:0] $end
$var wire 3 > N2 [2:0] $end
$var wire 3 ? N1 [2:0] $end
$var wire 9 @ N [8:0] $end
$var wire 1 A Cout_B $end
$var wire 1 B Cout_A $end
$var parameter 8 C in_A1 $end
$var parameter 8 D in_A2 $end
$var parameter 8 E in_A3 $end
$var parameter 8 F in_A4 $end
$var parameter 8 G in_A5 $end
$var parameter 8 H in_A6 $end
$var parameter 8 I in_A7 $end
$var parameter 8 J in_B1 $end
$var parameter 8 K in_B2 $end
$var parameter 8 L in_B3 $end
$var parameter 8 M in_B4 $end
$var parameter 8 N in_B5 $end
$var parameter 8 O in_B6 $end
$var parameter 8 P in_B7 $end
$var parameter 32 Q n $end
$var parameter 8 R neg_2_pow_n $end
$scope module alu_A $end
$var wire 1 0 shift_direction $end
$var wire 3 S shift_amount [2:0] $end
$var wire 8 T fromM [7:0] $end
$var wire 8 U fromLU [7:0] $end
$var wire 8 V fromAU [7:0] $end
$var wire 8 W Y [7:0] $end
$var wire 8 X X [7:0] $end
$var wire 4 Y S [3:0] $end
$var wire 8 Z Outp [7:0] $end
$var wire 1 B Cout $end
$scope module AU $end
$var wire 3 [ S [2:0] $end
$var wire 8 \ Outp [7:0] $end
$var wire 1 B Cout $end
$var wire 8 ] B [7:0] $end
$var wire 8 ^ A [7:0] $end
$scope module add_sub $end
$var wire 3 _ S [2:0] $end
$var wire 8 ` to_A [7:0] $end
$var wire 7 a c [6:0] $end
$var wire 8 b Y [7:0] $end
$var wire 8 c X [7:0] $end
$var wire 8 d G [7:0] $end
$var wire 1 B Cout $end
$scope module fulladder0 $end
$var wire 1 e A $end
$var wire 1 f B $end
$var wire 1 g CI $end
$var wire 1 h S $end
$var wire 1 i CO $end
$upscope $end
$scope module fulladder1 $end
$var wire 1 j A $end
$var wire 1 k B $end
$var wire 1 l CI $end
$var wire 1 m S $end
$var wire 1 n CO $end
$upscope $end
$scope module fulladder2 $end
$var wire 1 o A $end
$var wire 1 p B $end
$var wire 1 q CI $end
$var wire 1 r S $end
$var wire 1 s CO $end
$upscope $end
$scope module fulladder3 $end
$var wire 1 t A $end
$var wire 1 u B $end
$var wire 1 v CI $end
$var wire 1 w S $end
$var wire 1 x CO $end
$upscope $end
$scope module fulladder4 $end
$var wire 1 y A $end
$var wire 1 z B $end
$var wire 1 { CI $end
$var wire 1 | S $end
$var wire 1 } CO $end
$upscope $end
$scope module fulladder5 $end
$var wire 1 ~ A $end
$var wire 1 !" B $end
$var wire 1 "" CI $end
$var wire 1 #" S $end
$var wire 1 $" CO $end
$upscope $end
$scope module fulladder6 $end
$var wire 1 %" A $end
$var wire 1 &" B $end
$var wire 1 '" CI $end
$var wire 1 (" S $end
$var wire 1 )" CO $end
$upscope $end
$scope module fulladder7 $end
$var wire 1 *" A $end
$var wire 1 +" B $end
$var wire 1 ," CI $end
$var wire 1 -" S $end
$var wire 1 B CO $end
$upscope $end
$upscope $end
$upscope $end
$scope module LU $end
$var wire 2 ." S [1:0] $end
$var wire 8 /" Y [7:0] $end
$var wire 8 0" X [7:0] $end
$var wire 8 1" Q [7:0] $end
$scope module l0 $end
$var wire 2 2" S [1:0] $end
$var wire 1 3" X $end
$var wire 1 4" Y $end
$var wire 1 5" Q $end
$upscope $end
$scope module l1 $end
$var wire 2 6" S [1:0] $end
$var wire 1 7" X $end
$var wire 1 8" Y $end
$var wire 1 9" Q $end
$upscope $end
$scope module l2 $end
$var wire 2 :" S [1:0] $end
$var wire 1 ;" X $end
$var wire 1 <" Y $end
$var wire 1 =" Q $end
$upscope $end
$scope module l3 $end
$var wire 2 >" S [1:0] $end
$var wire 1 ?" X $end
$var wire 1 @" Y $end
$var wire 1 A" Q $end
$upscope $end
$scope module l4 $end
$var wire 2 B" S [1:0] $end
$var wire 1 C" X $end
$var wire 1 D" Y $end
$var wire 1 E" Q $end
$upscope $end
$scope module l5 $end
$var wire 2 F" S [1:0] $end
$var wire 1 G" X $end
$var wire 1 H" Y $end
$var wire 1 I" Q $end
$upscope $end
$scope module l6 $end
$var wire 2 J" S [1:0] $end
$var wire 1 K" X $end
$var wire 1 L" Y $end
$var wire 1 M" Q $end
$upscope $end
$scope module l7 $end
$var wire 2 N" S [1:0] $end
$var wire 1 O" X $end
$var wire 1 P" Y $end
$var wire 1 Q" Q $end
$upscope $end
$upscope $end
$scope module mux $end
$var wire 8 R" A [7:0] $end
$var wire 8 S" B [7:0] $end
$var wire 1 T" sel $end
$var wire 8 U" outp [7:0] $end
$upscope $end
$scope module shift $end
$var wire 8 V" data [7:0] $end
$var wire 1 0 shdir $end
$var wire 3 W" shamt [2:0] $end
$var wire 8 X" outp [7:0] $end
$upscope $end
$upscope $end
$scope module alu_B $end
$var wire 1 0 shift_direction $end
$var wire 3 Y" shift_amount [2:0] $end
$var wire 8 Z" fromM [7:0] $end
$var wire 8 [" fromLU [7:0] $end
$var wire 8 \" fromAU [7:0] $end
$var wire 8 ]" Y [7:0] $end
$var wire 8 ^" X [7:0] $end
$var wire 4 _" S [3:0] $end
$var wire 8 `" Outp [7:0] $end
$var wire 1 A Cout $end
$scope module AU $end
$var wire 3 a" S [2:0] $end
$var wire 8 b" Outp [7:0] $end
$var wire 1 A Cout $end
$var wire 8 c" B [7:0] $end
$var wire 8 d" A [7:0] $end
$scope module add_sub $end
$var wire 3 e" S [2:0] $end
$var wire 8 f" to_A [7:0] $end
$var wire 7 g" c [6:0] $end
$var wire 8 h" Y [7:0] $end
$var wire 8 i" X [7:0] $end
$var wire 8 j" G [7:0] $end
$var wire 1 A Cout $end
$scope module fulladder0 $end
$var wire 1 k" A $end
$var wire 1 l" B $end
$var wire 1 m" CI $end
$var wire 1 n" S $end
$var wire 1 o" CO $end
$upscope $end
$scope module fulladder1 $end
$var wire 1 p" A $end
$var wire 1 q" B $end
$var wire 1 r" CI $end
$var wire 1 s" S $end
$var wire 1 t" CO $end
$upscope $end
$scope module fulladder2 $end
$var wire 1 u" A $end
$var wire 1 v" B $end
$var wire 1 w" CI $end
$var wire 1 x" S $end
$var wire 1 y" CO $end
$upscope $end
$scope module fulladder3 $end
$var wire 1 z" A $end
$var wire 1 {" B $end
$var wire 1 |" CI $end
$var wire 1 }" S $end
$var wire 1 ~" CO $end
$upscope $end
$scope module fulladder4 $end
$var wire 1 !# A $end
$var wire 1 "# B $end
$var wire 1 ## CI $end
$var wire 1 $# S $end
$var wire 1 %# CO $end
$upscope $end
$scope module fulladder5 $end
$var wire 1 &# A $end
$var wire 1 '# B $end
$var wire 1 (# CI $end
$var wire 1 )# S $end
$var wire 1 *# CO $end
$upscope $end
$scope module fulladder6 $end
$var wire 1 +# A $end
$var wire 1 ,# B $end
$var wire 1 -# CI $end
$var wire 1 .# S $end
$var wire 1 /# CO $end
$upscope $end
$scope module fulladder7 $end
$var wire 1 0# A $end
$var wire 1 1# B $end
$var wire 1 2# CI $end
$var wire 1 3# S $end
$var wire 1 A CO $end
$upscope $end
$upscope $end
$upscope $end
$scope module LU $end
$var wire 2 4# S [1:0] $end
$var wire 8 5# Y [7:0] $end
$var wire 8 6# X [7:0] $end
$var wire 8 7# Q [7:0] $end
$scope module l0 $end
$var wire 2 8# S [1:0] $end
$var wire 1 9# X $end
$var wire 1 :# Y $end
$var wire 1 ;# Q $end
$upscope $end
$scope module l1 $end
$var wire 2 <# S [1:0] $end
$var wire 1 =# X $end
$var wire 1 ># Y $end
$var wire 1 ?# Q $end
$upscope $end
$scope module l2 $end
$var wire 2 @# S [1:0] $end
$var wire 1 A# X $end
$var wire 1 B# Y $end
$var wire 1 C# Q $end
$upscope $end
$scope module l3 $end
$var wire 2 D# S [1:0] $end
$var wire 1 E# X $end
$var wire 1 F# Y $end
$var wire 1 G# Q $end
$upscope $end
$scope module l4 $end
$var wire 2 H# S [1:0] $end
$var wire 1 I# X $end
$var wire 1 J# Y $end
$var wire 1 K# Q $end
$upscope $end
$scope module l5 $end
$var wire 2 L# S [1:0] $end
$var wire 1 M# X $end
$var wire 1 N# Y $end
$var wire 1 O# Q $end
$upscope $end
$scope module l6 $end
$var wire 2 P# S [1:0] $end
$var wire 1 Q# X $end
$var wire 1 R# Y $end
$var wire 1 S# Q $end
$upscope $end
$scope module l7 $end
$var wire 2 T# S [1:0] $end
$var wire 1 U# X $end
$var wire 1 V# Y $end
$var wire 1 W# Q $end
$upscope $end
$upscope $end
$scope module mux $end
$var wire 8 X# A [7:0] $end
$var wire 8 Y# B [7:0] $end
$var wire 1 Z# sel $end
$var wire 8 [# outp [7:0] $end
$upscope $end
$scope module shift $end
$var wire 8 \# data [7:0] $end
$var wire 1 0 shdir $end
$var wire 3 ]# shamt [2:0] $end
$var wire 8 ^# outp [7:0] $end
$upscope $end
$upscope $end
$scope module dec $end
$var wire 1 6 is_2_pow_n_A $end
$var wire 1 5 is_neg_2_B $end
$var wire 1 4 is_neg_2_pow_n_A $end
$var wire 1 3 is_zero_B $end
$var wire 1 _# lsb_A $end
$var wire 1 `# lsb_B $end
$var wire 2 a# msb_A [1:0] $end
$var wire 2 b# msb_B [1:0] $end
$var parameter 32 c# n $end
$var reg 4 d# aluOp [3:0] $end
$var reg 3 e# sel [2:0] $end
$var reg 3 f# shamt [2:0] $end
$var reg 1 0 shdir $end
$upscope $end
$scope module from_A $end
$var wire 3 g# R0 [2:0] $end
$var wire 4 h# R1 [3:0] $end
$var wire 3 i# R_1 [2:0] $end
$var wire 8 j# A [7:0] $end
$var parameter 32 k# n $end
$upscope $end
$scope module from_B $end
$var wire 4 l# R1 [3:0] $end
$var wire 3 m# R_1 [2:0] $end
$var wire 8 n# B [7:0] $end
$var parameter 32 o# n $end
$upscope $end
$scope module mux_A $end
$var wire 8 p# in_A [7:0] $end
$var wire 8 q# in_B [7:0] $end
$var wire 8 r# in_C [7:0] $end
$var wire 8 s# in_D [7:0] $end
$var wire 8 t# in_E [7:0] $end
$var wire 8 u# in_F [7:0] $end
$var wire 8 v# in_G [7:0] $end
$var wire 3 w# sel [2:0] $end
$var wire 8 x# outp [7:0] $end
$upscope $end
$scope module mux_B $end
$var wire 8 y# in_A [7:0] $end
$var wire 8 z# in_B [7:0] $end
$var wire 8 {# in_C [7:0] $end
$var wire 8 |# in_D [7:0] $end
$var wire 8 }# in_E [7:0] $end
$var wire 8 ~# in_F [7:0] $end
$var wire 8 !$ in_G [7:0] $end
$var wire 3 "$ sel [2:0] $end
$var wire 8 #$ outp [7:0] $end
$upscope $end
$upscope $end
$upscope $end
$enddefinitions $end
$comment Show the parameter values. $end
$dumpall
b11 o#
b11 k#
b11 c#
b11111000 R
b11 Q
b11111110 P
b10000 O
b10 N
b1110 M
b1001 L
b10010 K
b111 J
b10000 I
b11111110 H
b11110000 G
b1110 F
b11110111 E
b11101110 D
b111 C
b11 "
$end
#0
$dumpvars
b0 #$
b0 "$
b11111110 !$
b10000 ~#
b10 }#
b1110 |#
b1001 {#
b10010 z#
b111 y#
b0 x#
b0 w#
b10000 v#
b11111110 u#
b11110000 t#
b1110 s#
b11110111 r#
b11101110 q#
b111 p#
b0 n#
b0 m#
b0 l#
b11111000 j#
b0 i#
b0 h#
b100 g#
b1 f#
b0 e#
b10 d#
b0 b#
b11 a#
0`#
0_#
b0 ^#
b1 ]#
b0 \#
b0 [#
0Z#
b0 Y#
b0 X#
0W#
0V#
0U#
b10 T#
0S#
0R#
0Q#
b10 P#
0O#
0N#
0M#
b10 L#
0K#
0J#
0I#
b10 H#
0G#
0F#
0E#
b10 D#
0C#
0B#
0A#
b10 @#
0?#
0>#
0=#
b10 <#
0;#
0:#
09#
b10 8#
b0 7#
b0 6#
b0 5#
b10 4#
03#
02#
01#
00#
0/#
0.#
0-#
0,#
0+#
0*#
0)#
0(#
0'#
0&#
0%#
0$#
0##
0"#
0!#
0~"
0}"
0|"
0{"
0z"
0y"
0x"
0w"
0v"
0u"
0t"
0s"
0r"
0q"
0p"
0o"
0n"
0m"
0l"
0k"
b0 j"
b0 i"
b0 h"
b0 g"
b0 f"
b10 e"
b0 d"
b0 c"
b0 b"
b10 a"
b0 `"
b10 _"
b0 ^"
b0 ]"
b0 \"
b0 ["
b0 Z"
b1 Y"
b1111100 X"
b1 W"
b11111000 V"
b11111000 U"
0T"
b11111000 S"
b11111000 R"
1Q"
0P"
1O"
b10 N"
1M"
0L"
1K"
b10 J"
1I"
0H"
1G"
b10 F"
1E"
0D"
1C"
b10 B"
1A"
0@"
1?"
b10 >"
0="
0<"
0;"
b10 :"
09"
08"
07"
b10 6"
05"
04"
03"
b10 2"
b11111000 1"
b11111000 0"
b0 /"
b10 ."
1-"
0,"
1+"
0*"
0)"
1("
0'"
1&"
0%"
0$"
1#"
0""
1!"
0~
0}
1|
0{
1z
0y
0x
1w
0v
1u
0t
0s
0r
0q
0p
0o
0n
0m
0l
0k
0j
0i
0h
0g
0f
0e
b11111000 d
b11111000 c
b0 b
b0 a
b0 `
b10 _
b0 ^
b11111000 ]
b11111000 \
b10 [
b1111100 Z
b10 Y
b11111000 X
b0 W
b11111000 V
b11111000 U
b11111000 T
b1 S
0B
0A
b100000100 @
b0 ?
b100 >
b0 =
b1111100 <
b10 ;
b11111000 :
b0 9
b0 8
b0 7
06
05
14
13
b0 2
b1 1
10
b0 /
b0 .
b100 -
b100 ,
b0 +
b111 *
b11111111111111111111111100000100 )
b0 (
b11111111111111111111111100000100 '
b0 &
b0 %
b0 $
b100 #
b100000100 !
$end
#10000
b1 %
b1 /
b1 i#
b1 m#
b100000101 !
b100000101 @
b101 ,
b101 #
b101 -
b101 g#
b11111000 :
b11111000 X
b11111000 ]
b11111000 c
b11111000 0"
b11111000 j#
b0 9
b0 ^"
b0 c"
b0 i"
b0 6#
b0 n#
b1 $
b1 .
b1 h#
b1 l#
b1 +
b11111111111111111111111100000101 )
b111 *
b11111111111111111111111100000101 '
b1 (
#20000
b10 %
b10 /
b10 i#
b10 m#
b100000110 !
b100000110 @
b110 ,
b110 #
b110 -
b110 g#
b11111000 :
b11111000 X
b11111000 ]
b11111000 c
b11111000 0"
b11111000 j#
b0 9
b0 ^"
b0 c"
b0 i"
b0 6#
b0 n#
b10 $
b10 .
b10 h#
b10 l#
b10 +
b11111111111111111111111100000110 )
b111 *
b11111111111111111111111100000110 '
b10 (
#30000
b11 %
b11 /
b11 i#
b11 m#
b100000111 !
b100000111 @
b111 ,
b111 #
b111 -
b111 g#
b11111000 :
b11111000 X
b11111000 ]
b11111000 c
b11111000 0"
b11111000 j#
b0 9
b0 ^"
b0 c"
b0 i"
b0 6#
b0 n#
b11 $
b11 .
b11 h#
b11 l#
b11 +
b11111111111111111111111100000111 )
b111 *
b11111111111111111111111100000111 '
b11 (
#40000
b1 ?
b1 =
b1 `"
b1 ^#
b10 Z"
b10 [#
b10 \#
b10 ["
b10 7#
b10 Y#
1?#
b10 \"
b10 b"
b10 j"
b10 X#
1s"
1y
1~
1%"
1*"
1p"
b11110000 `
b10 f"
1D"
1H"
1L"
1P"
1>#
b11110000 8
b11110000 W
b11110000 ^
b11110000 b
b11110000 /"
b11110000 x#
b10 7
b10 ]"
b10 d"
b10 h"
b10 5#
b10 #$
1E"
1I"
1M"
b11111000 U
b11111000 1"
b11111000 S"
1Q"
b1111100 <
b1111100 Z
b1111100 X"
b11111000 T
b11111000 U"
b11111000 V"
1-"
1("
1#"
b11111000 V
b11111000 \
b11111000 d
b11111000 R"
1|
b101 2
b101 e#
b101 w#
b101 "$
16
0C"
0G"
0K"
0O"
0+"
0&"
0!"
0z
b1 a#
04
b100 %
b100 /
b100 i#
b100 m#
b100001000 !
b100001000 @
b0 ,
b0 #
b0 -
b0 g#
b1000 :
b1000 X
b1000 ]
b1000 c
b1000 0"
b1000 j#
b0 9
b0 ^"
b0 c"
b0 i"
b0 6#
b0 n#
b100 $
b100 .
b100 h#
b100 l#
b100 +
b11111111111111111111111100001000 )
b111 *
b11111111111111111111111100001000 '
b100 (
#50000
b101 %
b101 /
b101 i#
b101 m#
b100001001 !
b100001001 @
b1 ,
b1 #
b1 -
b1 g#
b1000 :
b1000 X
b1000 ]
b1000 c
b1000 0"
b1000 j#
b0 9
b0 ^"
b0 c"
b0 i"
b0 6#
b0 n#
b101 $
b101 .
b101 h#
b101 l#
b101 +
b11111111111111111111111100001001 )
b111 *
b11111111111111111111111100001001 '
b101 (
#60000
b110 %
b110 /
b110 i#
b110 m#
b100001010 !
b100001010 @
b10 ,
b10 #
b10 -
b10 g#
b1000 :
b1000 X
b1000 ]
b1000 c
b1000 0"
b1000 j#
b0 9
b0 ^"
b0 c"
b0 i"
b0 6#
b0 n#
b110 $
b110 .
b110 h#
b110 l#
b110 +
b11111111111111111111111100001010 )
b111 *
b11111111111111111111111100001010 '
b110 (
#70000
1A
12#
1/#
1v
1-#
1s
1*#
1q
1(#
1n
1%#
1l
1r"
1##
19"
1="
b111 a
1i
0m
0r
0?#
1o"
1s"
b1111001 g"
1~"
1e
1j
1o
1k"
0p"
1z"
b11110111 `
b1001 f"
14"
18"
1<"
1:#
0>#
1F#
0A"
b11110110 U
b11110110 1"
b11110110 S"
05"
b100 >
0;#
0G#
1K#
1O#
1S#
b11110000 ["
b11110000 7#
b11110000 Y#
1W#
b1 ?
b11110111 8
b11110111 W
b11110111 ^
b11110111 b
b11110111 /"
b11110111 x#
b1001 7
b1001 ]"
b1001 d"
b1001 h"
b1001 5#
b1001 #$
b1111100 <
b1111100 Z
b1111100 X"
b1 =
b1 `"
b1 ^#
b11111000 T
b11111000 U"
b11111000 V"
b10 Z"
b10 [#
b10 \#
1w
b11111000 V
b11111000 \
b11111000 d
b11111000 R"
0h
03#
0.#
0)#
0$#
0}"
b10 \"
b10 b"
b10 j"
b10 X#
0n"
b11 2
b11 e#
b11 w#
b11 "$
0?"
0u
b0 a#
13"
1f
1_#
06
19#
1E#
1I#
1M#
1Q#
1U#
11#
1,#
1'#
1"#
1{"
1l"
1`#
b10 b#
03
b0 %
b0 /
b0 i#
b0 m#
b100001011 !
b100001011 @
b11 ,
b11 #
b11 -
b11 g#
b1 :
b1 X
b1 ]
b1 c
b1 0"
b1 j#
b11111001 9
b11111001 ^"
b11111001 c"
b11111001 i"
b11111001 6#
b11111001 n#
b111 $
b111 .
b111 h#
b111 l#
b0 +
b11111111111111111111111100001011 )
b111 *
b11111111111111111111111100001011 '
b111 (
#80000
b1 %
b1 /
b1 i#
b1 m#
b100001100 !
b100001100 @
b100 ,
b100 #
b100 -
b100 g#
b1 :
b1 X
b1 ]
b1 c
b1 0"
b1 j#
b11111001 9
b11111001 ^"
b11111001 c"
b11111001 i"
b11111001 6#
b11111001 n#
b1000 $
b1000 .
b1000 h#
b1000 l#
b1 +
b11111111111111111111111100001100 )
b111 *
b11111111111111111111111100001100 '
b1000 (
#90000
09"
0="
0e
0j
0o
0y
0~
0%"
0*"
0k"
0z"
b0 `
b0 f"
0v
0r
0s
04"
08"
0<"
0D"
0H"
0L"
0P"
0:#
0F#
05"
0q
0;#
1?#
1A"
1E"
1I"
1M"
b11111000 U
b11111000 1"
b11111000 S"
1Q"
b100 >
0G#
0K#
0O#
0S#
b10 ["
b10 7#
b10 Y#
0W#
b1 ?
b0 8
b0 W
b0 ^
b0 b
b0 /"
b0 x#
b0 7
b0 ]"
b0 d"
b0 h"
b0 5#
b0 #$
0m
0n
0x"
b1111100 <
b1111100 Z
b1111100 X"
b1 =
b1 `"
b1 ^#
0l
0w"
0r"
0,"
0'"
0""
b11111000 T
b11111000 U"
b11111000 V"
0{
02#
0-#
0(#
b10 Z"
b10 [#
b10 \#
0##
0h
0i
1s"
0t"
0n"
0o"
1-"
0B
1("
0)"
1#"
0$"
1|
0}
b11111000 V
b11111000 \
b11111000 d
b11111000 R"
1w
b0 a
0x
03#
0A
0.#
0/#
0)#
0*#
0$#
0%#
b10 \"
b10 b"
b10 j"
b10 X#
0}"
b0 g"
0~"
b0 2
b0 e#
b0 w#
b0 "$
03"
0f
0_#
14
09#
1=#
1q"
0l"
0`#
1?"
1C"
1G"
1K"
1O"
1+"
1&"
1!"
1z
1u
b11 a#
0E#
0I#
0M#
0Q#
0U#
01#
0,#
0'#
0"#
0{"
b0 b#
b10 %
b10 /
b10 i#
b10 m#
b100001101 !
b100001101 @
b101 ,
b101 #
b101 -
b101 g#
b11111000 :
b11111000 X
b11111000 ]
b11111000 c
b11111000 0"
b11111000 j#
b10 9
b10 ^"
b10 c"
b10 i"
b10 6#
b10 n#
b0 $
b0 .
b0 h#
b0 l#
b10 +
b11111111111111111111111100001101 )
b111 *
b11111111111111111111111100001101 '
b1001 (
#100000
b11 %
b11 /
b11 i#
b11 m#
b100001110 !
b100001110 @
b110 ,
b110 #
b110 -
b110 g#
b11111000 :
b11111000 X
b11111000 ]
b11111000 c
b11111000 0"
b11111000 j#
b10 9
b10 ^"
b10 c"
b10 i"
b10 6#
b10 n#
b1 $
b1 .
b1 h#
b1 l#
b11 +
b11111111111111111111111100001110 )
b111 *
b11111111111111111111111100001110 '
b1010 (
#110000
b100 %
b100 /
b100 i#
b100 m#
b100001111 !
b100001111 @
b111 ,
b111 #
b111 -
b111 g#
b11111000 :
b11111000 X
b11111000 ]
b11111000 c
b11111000 0"
b11111000 j#
b10 9
b10 ^"
b10 c"
b10 i"
b10 6#
b10 n#
b10 $
b10 .
b10 h#
b10 l#
b100 +
b11111111111111111111111100001111 )
b111 *
b11111111111111111111111100001111 '
b1011 (
#120000
b10 ?
b10 =
b10 `"
b10 ^#
1x"
b100 Z"
b100 [#
b100 \#
1w"
b0 ["
b0 7#
b0 Y#
0?#
b100 \"
b100 b"
b100 j"
b100 X#
0s"
b10 g"
1t"
1y
1~
1%"
1*"
1p"
b11110000 `
b10 f"
1D"
1H"
1L"
1P"
1>#
b11110000 8
b11110000 W
b11110000 ^
b11110000 b
b11110000 /"
b11110000 x#
b10 7
b10 ]"
b10 d"
b10 h"
b10 5#
b10 #$
1E"
1I"
1M"
b11111000 U
b11111000 1"
b11111000 S"
1Q"
b1111100 <
b1111100 Z
b1111100 X"
b11111000 T
b11111000 U"
b11111000 V"
1-"
1("
1#"
b11111000 V
b11111000 \
b11111000 d
b11111000 R"
1|
b101 2
b101 e#
b101 w#
b101 "$
16
0C"
0G"
0K"
0O"
0+"
0&"
0!"
0z
b1 a#
04
b101 %
b101 /
b101 i#
b101 m#
b100010000 !
b100010000 @
b0 ,
b0 #
b0 -
b0 g#
b1000 :
b1000 X
b1000 ]
b1000 c
b1000 0"
b1000 j#
b10 9
b10 ^"
b10 c"
b10 i"
b10 6#
b10 n#
b11 $
b11 .
b11 h#
b11 l#
b101 +
b11111111111111111111111100010000 )
b111 *
b11111111111111111111111100010000 '
b1100 (
#130000
b110 %
b110 /
b110 i#
b110 m#
b100010001 !
b100010001 @
b1 ,
b1 #
b1 -
b1 g#
b1000 :
b1000 X
b1000 ]
b1000 c
b1000 0"
b1000 j#
b10 9
b10 ^"
b10 c"
b10 i"
b10 6#
b10 n#
b100 $
b100 .
b100 h#
b100 l#
b110 +
b11111111111111111111111100010001 )
b111 *
b11111111111111111111111100010001 '
b1101 (
#140000
1A
12#
1/#
1v
1-#
1s
1*#
1q
1(#
1n
1x"
1%#
1l
1r"
1w"
1##
19"
1="
b111 a
1i
0m
0r
1?#
1o"
0s"
1t"
b1111011 g"
1~"
1e
1j
1o
1k"
0p"
1z"
b11110111 `
b1001 f"
14"
18"
1<"
1:#
0>#
1F#
0G#
1K#
1O#
1S#
1W#
0A"
b11110110 U
b11110110 1"
b11110110 S"
05"
b100 >
b11110010 ["
b11110010 7#
b11110010 Y#
0;#
b10 ?
b11110111 8
b11110111 W
b11110111 ^
b11110111 b
b11110111 /"
b11110111 x#
b1001 7
b1001 ]"
b1001 d"
b1001 h"
b1001 5#
b1001 #$
b1111100 <
b1111100 Z
b1111100 X"
b10 =
b10 `"
b10 ^#
b11111000 T
b11111000 U"
b11111000 V"
b100 Z"
b100 [#
b100 \#
03#
0.#
0)#
0$#
0}"
1w
b11111000 V
b11111000 \
b11111000 d
b11111000 R"
0h
b100 \"
b100 b"
b100 j"
b100 X#
0n"
b11 2
b11 e#
b11 w#
b11 "$
1E#
1I#
1M#
1Q#
1U#
11#
1,#
1'#
1"#
1{"
b10 b#
0?"
0u
b0 a#
13"
1f
1_#
06
19#
1l"
1`#
b0 %
b0 /
b0 i#
b0 m#
b100010010 !
b100010010 @
b10 ,
b10 #
b10 -
b10 g#
b1 :
b1 X
b1 ]
b1 c
b1 0"
b1 j#
b11111011 9
b11111011 ^"
b11111011 c"
b11111011 i"
b11111011 6#
b11111011 n#
b101 $
b101 .
b101 h#
b101 l#
b0 +
b11111111111111111111111100010010 )
b111 *
b11111111111111111111111100010010 '
b1110 (
#150000
b1 %
b1 /
b1 i#
b1 m#
b100010011 !
b100010011 @
b11 ,
b11 #
b11 -
b11 g#
b1 :
b1 X
b1 ]
b1 c
b1 0"
b1 j#
b11111011 9
b11111011 ^"
b11111011 c"
b11111011 i"
b11111011 6#
b11111011 n#
b110 $
b110 .
b110 h#
b110 l#
b1 +
b11111111111111111111111100010011 )
b111 *
b11111111111111111111111100010011 '
b1111 (
#160000
b10 %
b10 /
b10 i#
b10 m#
b100010100 !
b100010100 @
b100 ,
b100 #
b100 -
b100 g#
b1 :
b1 X
b1 ]
b1 c
b1 0"
b1 j#
b11111011 9
b11111011 ^"
b11111011 c"
b11111011 i"
b11111011 6#
b11111011 n#
b111 $
b111 .
b111 h#
b111 l#
b10 +
b11111111111111111111111100010100 )
b111 *
b11111111111111111111111100010100 '
b10000 (
#170000
b11 %
b11 /
b11 i#
b11 m#
b100010101 !
b100010101 @
b101 ,
b101 #
b101 -
b101 g#
b1 :
b1 X
b1 ]
b1 c
b1 0"
b1 j#
b11111011 9
b11111011 ^"
b11111011 c"
b11111011 i"
b11111011 6#
b11111011 n#
b1000 $
b1000 .
b1000 h#
b1000 l#
b11 +
b11111111111111111111111100010101 )
b111 *
b11111111111111111111111100010101 '
b10001 (
#180000
09"
0="
0e
0j
0o
0y
0~
0%"
0*"
0k"
0z"
b0 `
b0 f"
0v
0r
0s
04"
08"
0<"
0D"
0H"
0L"
0P"
0:#
0F#
05"
0q
0;#
0?#
1C#
1A"
1E"
1I"
1M"
b11111000 U
b11111000 1"
b11111000 S"
1Q"
b100 >
0G#
0K#
0O#
0S#
b100 ["
b100 7#
b100 Y#
0W#
b10 ?
b0 8
b0 W
b0 ^
b0 b
b0 /"
b0 x#
b0 7
b0 ]"
b0 d"
b0 h"
b0 5#
b0 #$
0m
0n
b1111100 <
b1111100 Z
b1111100 X"
b10 =
b10 `"
b10 ^#
0l
0|"
0w"
0r"
0,"
0'"
0""
b11111000 T
b11111000 U"
b11111000 V"
0{
02#
0-#
0(#
b100 Z"
b100 [#
b100 \#
0##
0h
0i
1x"
0y"
0s"
0t"
0n"
0o"
1-"
0B
1("
0)"
1#"
0$"
1|
0}
b11111000 V
b11111000 \
b11111000 d
b11111000 R"
1w
b0 a
0x
03#
0A
0.#
0/#
0)#
0*#
0$#
0%#
b100 \"
b100 b"
b100 j"
b100 X#
0}"
b0 g"
0~"
b0 2
b0 e#
b0 w#
b0 "$
03"
0f
0_#
14
09#
0=#
1A#
1v"
0q"
0l"
0`#
1?"
1C"
1G"
1K"
1O"
1+"
1&"
1!"
1z
1u
b11 a#
0E#
0I#
0M#
0Q#
0U#
01#
0,#
0'#
0"#
0{"
b1 b#
b100 %
b100 /
b100 i#
b100 m#
b100010110 !
b100010110 @
b110 ,
b110 #
b110 -
b110 g#
b11111000 :
b11111000 X
b11111000 ]
b11111000 c
b11111000 0"
b11111000 j#
b100 9
b100 ^"
b100 c"
b100 i"
b100 6#
b100 n#
b0 $
b0 .
b0 h#
b0 l#
b100 +
b11111111111111111111111100010110 )
b111 *
b11111111111111111111111100010110 '
b10010 (
#190000
b101 %
b101 /
b101 i#
b101 m#
b100010111 !
b100010111 @
b111 ,
b111 #
b111 -
b111 g#
b11111000 :
b11111000 X
b11111000 ]
b11111000 c
b11111000 0"
b11111000 j#
b100 9
b100 ^"
b100 c"
b100 i"
b100 6#
b100 n#
b1 $
b1 .
b1 h#
b1 l#
b101 +
b11111111111111111111111100010111 )
b111 *
b11111111111111111111111100010111 '
b10011 (
